<svg width="26" height="25" viewBox="0 0 26 25" fill="none" xmlns="http://www.w3.org/2000/svg">
<rect x="0.427734" y="0.259033" width="25" height="24.0217" rx="12.0109" fill="#F6DCEE"/>
<path d="M9.147 14.2488L13.0936 10.013L12.9989 10.8986C12.9926 10.9568 12.9979 11.0156 13.0145 11.0717C13.031 11.1278 13.0584 11.1801 13.0951 11.2256C13.1318 11.2711 13.1771 11.309 13.2285 11.337C13.2798 11.365 13.3362 11.3826 13.3943 11.3888C13.4631 11.3962 13.5326 11.3874 13.5974 11.3632C13.6621 11.3391 13.7204 11.3002 13.7675 11.2496C13.8332 11.1791 13.8743 11.0892 13.8845 10.9934L14.1213 8.77927C14.1281 8.71109 14.119 8.64227 14.0947 8.57818C14.0705 8.51409 14.0319 8.45645 13.9817 8.40974C13.9316 8.36304 13.8714 8.32853 13.8057 8.3089C13.7401 8.28927 13.6708 8.28505 13.6033 8.29657L11.4539 8.64354C11.3372 8.66229 11.2326 8.72665 11.1634 8.82247C11.0941 8.91829 11.0657 9.03771 11.0844 9.15446C11.1032 9.27122 11.1675 9.37574 11.2633 9.44504C11.3592 9.51433 11.4786 9.54273 11.5953 9.52398L12.4662 9.37976L8.49534 13.6417C8.41482 13.7281 8.37193 13.8429 8.3761 13.961C8.38028 14.079 8.43117 14.1906 8.51758 14.2711C8.604 14.3516 8.71886 14.3945 8.8369 14.3903C8.95494 14.3861 9.06649 14.3353 9.147 14.2488Z" fill="#D152AE"/>
<path d="M16.2849 11.1606L12.3383 15.3964L12.433 14.5108C12.4456 14.3934 12.411 14.2757 12.3368 14.1838C12.2626 14.0919 12.155 14.0332 12.0376 14.0206C11.9201 14.0081 11.8025 14.0427 11.7106 14.1168C11.6186 14.191 11.5599 14.2986 11.5474 14.4161L11.3105 16.6302C11.3038 16.6983 11.3129 16.7672 11.3371 16.8312C11.3613 16.8953 11.4 16.953 11.4501 16.9997C11.5003 17.0464 11.5605 17.0809 11.6261 17.1005C11.6918 17.1202 11.7611 17.1244 11.8286 17.1129L13.978 16.7659C14.0751 16.7501 14.1643 16.7027 14.2316 16.6309C14.2778 16.581 14.312 16.5212 14.3316 16.4561C14.3511 16.3909 14.3555 16.3222 14.3443 16.2551C14.3257 16.1389 14.2618 16.0348 14.1667 15.9655C14.0715 15.8963 13.9528 15.8675 13.8365 15.8854L12.9657 16.0297L16.9365 11.7678C17.0171 11.6813 17.0599 11.5665 17.0558 11.4484C17.0516 11.3304 17.0007 11.2189 16.9143 11.1383C16.8279 11.0578 16.713 11.0149 16.595 11.0191C16.4769 11.0233 16.3654 11.0742 16.2849 11.1606Z" fill="#D152AE"/>
</svg>
