<svg id="Objects" xmlns="http://www.w3.org/2000/svg" width="402.864" height="584.324" viewBox="0 0 402.864 584.324">
  <path id="Path_145" data-name="Path 145" d="M713.28,571.15H526.4L529.986,356H710.612Z" transform="translate(-516.81 -356)" fill="#f7f7f7"/>
  <g id="Group_203" data-name="Group 203" transform="translate(0 215.15)">
    <g id="Group_202" data-name="Group 202">
      <g id="Group_198" data-name="Group 198">
        <rect id="Rectangle_103" data-name="Rectangle 103" width="402.864" height="27.186" fill="#606060"/>
      </g>
      <g id="Group_199" data-name="Group 199" transform="translate(130.091 102.655)">
        <rect id="Rectangle_104" data-name="Rectangle 104" width="142.599" height="15.844" fill="#606060"/>
      </g>
      <g id="Group_200" data-name="Group 200" transform="translate(0 11.008)">
        <path id="Path_146" data-name="Path 146" d="M514.9,985.283,688.438,627.2l18.179,8.839L537.249,985.366Z" transform="translate(-514.9 -627.2)" fill="#606060"/>
      </g>
      <g id="Group_201" data-name="Group 201" transform="translate(211.147 11.008)">
        <path id="Path_147" data-name="Path 147" d="M959.733,985.283,786.2,627.2l-18.1,8.839L937.385,985.366Z" transform="translate(-768.1 -627.2)" fill="#606060"/>
      </g>
    </g>
  </g>
  <g id="Group_204" data-name="Group 204" transform="translate(33.523 42.113)">
    <ellipse id="Ellipse_18" data-name="Ellipse 18" cx="70.966" cy="65.295" rx="70.966" ry="65.295" fill="#2a94f4"/>
    <path id="Path_148" data-name="Path 148" d="M640.2,484.8h70.966a61.766,61.766,0,0,1-13.509,38.277A70.494,70.494,0,0,1,662.3,546.76Z" transform="translate(-569.234 -419.505)" fill="#cce9ff"/>
    <path id="Path_149" data-name="Path 149" d="M630.766,471.8,583.4,423.178A74.851,74.851,0,0,1,630.766,406.5c38.944,0,70.966,29.437,70.966,65.3v.334Z" transform="translate(-559.8 -406.5)" fill="#0b4870"/>
  </g>
  <g id="Group_206" data-name="Group 206" transform="translate(217.652 103.239)">
    <path id="Path_150" data-name="Path 150" d="M933.76,591.711H775.9l3-111.911H931.425Z" transform="translate(-775.9 -479.8)" fill="#f7f7f7"/>
    <g id="Group_205" data-name="Group 205" transform="translate(42.863 24.517)">
      <rect id="Rectangle_105" data-name="Rectangle 105" width="17.179" height="65.712" transform="translate(0 8.339)" fill="#0b4870"/>
      <rect id="Rectangle_106" data-name="Rectangle 106" width="17.179" height="57.957" transform="translate(29.437 16.178)" fill="#0b4870"/>
      <rect id="Rectangle_107" data-name="Rectangle 107" width="17.179" height="74.052" transform="translate(58.791)" fill="#ffbe55"/>
    </g>
    <rect id="Rectangle_108" data-name="Rectangle 108" width="1.835" height="82.224" transform="translate(28.353 17.262)" fill="#0b4870"/>
  </g>
  <rect id="Rectangle_109" data-name="Rectangle 109" width="114.663" height="1.418" transform="translate(246.005 201.807)" fill="#0b4870"/>
  <rect id="Rectangle_110" data-name="Rectangle 110" width="6.254" height="6.254" transform="translate(24.434 179.375)" fill="#0b4870"/>
  <rect id="Rectangle_111" data-name="Rectangle 111" width="24.1" height="2.001" transform="translate(34.19 181.543)" fill="#0b4870"/>
  <rect id="Rectangle_112" data-name="Rectangle 112" width="24.1" height="2.001" transform="translate(34.19 192.301)" fill="#0b4870"/>
  <rect id="Rectangle_113" data-name="Rectangle 113" width="24.1" height="2.001" transform="translate(34.19 203.141)" fill="#0b4870"/>
  <rect id="Rectangle_114" data-name="Rectangle 114" width="6.254" height="6.254" transform="translate(24.434 190.216)" fill="#2a94f4"/>
  <rect id="Rectangle_115" data-name="Rectangle 115" width="6.254" height="6.254" transform="translate(24.434 200.973)" fill="#cce9ff"/>
</svg>
