<svg width="25" height="24" viewBox="0 0 25 24" fill="none" xmlns="http://www.w3.org/2000/svg">
<rect width="25" height="24" rx="12" fill="#CCF0E1"/>
<path d="M15.7494 9.04535C15.7494 8.89317 15.6865 8.74723 15.5745 8.63962C15.4625 8.53201 15.3106 8.47156 15.1523 8.47156L10.375 8.44287C10.2166 8.44287 10.0647 8.50332 9.95276 8.61093C9.84077 8.71854 9.77785 8.86448 9.77785 9.01666C9.77785 9.16884 9.84077 9.31478 9.95276 9.42239C10.0647 9.53 10.2166 9.59045 10.375 9.59045H13.6952L8.75672 14.3472C8.70075 14.4005 8.65632 14.464 8.626 14.5339C8.59569 14.6038 8.58008 14.6788 8.58008 14.7545C8.58008 14.8303 8.59569 14.9053 8.626 14.9752C8.65632 15.0451 8.70075 15.1086 8.75672 15.1619C8.81223 15.2157 8.87828 15.2584 8.95104 15.2875C9.02381 15.3167 9.10186 15.3317 9.1807 15.3317C9.25953 15.3317 9.33758 15.3167 9.41035 15.2875C9.48312 15.2584 9.54916 15.2157 9.60468 15.1619L14.5551 10.4052V13.607C14.5551 13.7591 14.618 13.9051 14.73 14.0127C14.842 14.1203 14.9939 14.1808 15.1523 14.1808C15.3106 14.1808 15.4625 14.1203 15.5745 14.0127C15.6865 13.9051 15.7494 13.7591 15.7494 13.607V9.04535Z" fill="#00B368"/>
</svg>
