<svg width="41" height="42" viewBox="0 0 41 42" fill="none" xmlns="http://www.w3.org/2000/svg">
<rect y="0.961182" width="40.6155" height="40.6155" rx="9" fill="#0569FF"/>
<path opacity="0.33" d="M16.8488 31.4157C15.6066 31.4157 14.5996 30.4087 14.5996 29.1665C14.5996 28.6801 14.7573 28.2068 15.049 27.8176L21.2775 19.5069C22.8943 17.3497 21.355 14.2725 18.6592 14.2725H17.4164C16.2957 14.2725 15.3871 13.3639 15.3871 12.2432C15.3871 11.1224 16.2957 10.2139 17.4164 10.2139H28.8768C30.1084 10.2139 31.1068 11.2123 31.1068 12.4438C31.1068 12.9232 30.9523 13.3899 30.6662 13.7745L24.83 21.6227C23.0308 24.0421 24.7577 27.4782 27.7727 27.4782H29.4712C30.5585 27.4782 31.4399 28.3597 31.4399 29.447C31.4399 30.5343 30.5585 31.4157 29.4712 31.4157H16.8488Z" fill="white"/>
<path d="M13.6828 31.4157C12.4406 31.4157 11.4336 30.4087 11.4336 29.1665C11.4336 28.6801 11.5913 28.2068 11.883 27.8176L18.1115 19.5069C19.7283 17.3497 18.189 14.2725 15.4932 14.2725H14.2504C13.1296 14.2725 12.2211 13.3639 12.2211 12.2432C12.2211 11.1224 13.1296 10.2139 14.2504 10.2139H25.7108C26.9423 10.2139 27.9407 11.2123 27.9407 12.4438C27.9407 12.9232 27.7863 13.3899 27.5002 13.7745L21.664 21.6227C19.8648 24.0421 21.5916 27.4782 24.6067 27.4782H26.3052C27.3925 27.4782 28.2739 28.3597 28.2739 29.447C28.2739 30.5343 27.3925 31.4157 26.3052 31.4157H13.6828Z" fill="white"/>
</svg>
