<svg width="47" height="63" viewBox="0 0 47 63" fill="none" xmlns="http://www.w3.org/2000/svg">
<path d="M0.997559 4.15271V58.4027C0.997559 60.5337 2.74097 62.2771 4.87195 62.2771H42.5473C44.6789 62.2771 46.4229 60.5331 46.4229 58.4015V14.5486C46.4229 13.3589 45.9502 12.2178 45.109 11.3764L35.3236 1.59101C34.4822 0.749758 33.3411 0.2771 32.1513 0.2771H4.87317C2.74158 0.2771 0.997559 2.02112 0.997559 4.15271Z" fill="url(#paint0_linear)"/>
<path d="M11.324 30.1879H36.097C36.7145 30.1879 37.215 29.6874 37.215 29.07V26.3438C37.215 25.7263 36.7145 25.2258 36.097 25.2258H11.324C10.7066 25.2258 10.2061 25.7263 10.2061 26.3438V29.07C10.2061 29.6874 10.7066 30.1879 11.324 30.1879Z" fill="#EBEFF0"/>
<path d="M11.324 37.9336H36.097C36.7145 37.9336 37.215 37.4331 37.215 36.8157V34.0895C37.215 33.4721 36.7145 32.9716 36.097 32.9716H11.324C10.7066 32.9716 10.2061 33.4721 10.2061 34.0895V36.8157C10.2061 37.4331 10.7066 37.9336 11.324 37.9336Z" fill="#EBEFF0"/>
<path d="M11.324 45.6792H36.097C36.7145 45.6792 37.215 45.1787 37.215 44.5613V41.8352C37.215 41.2178 36.7145 40.7173 36.097 40.7173H11.324C10.7066 40.7173 10.2061 41.2178 10.2061 41.8352V44.5614C10.2061 45.1787 10.7066 45.6792 11.324 45.6792Z" fill="#EBEFF0"/>
<path d="M11.0155 53.4251H23.5559C24.0029 53.4251 24.3653 53.0627 24.3653 52.6157V49.2725C24.3653 48.8255 24.0029 48.4631 23.5559 48.4631H11.0155C10.5685 48.4631 10.2061 48.8255 10.2061 49.2725V52.6157C10.2061 53.0627 10.5685 53.4251 11.0155 53.4251Z" fill="#EBEFF0"/>
<path d="M46.2899 13.4603C46.3042 13.5225 46.3175 13.5832 46.3295 13.6417H34.4586C33.618 13.6417 32.9365 12.9603 32.9365 12.1196V0.347656C33.0293 0.36419 33.1268 0.383519 33.2273 0.405766C34.1122 0.601492 34.9191 1.05652 35.56 1.69731L45.0004 11.1377C45.6388 11.7761 46.087 12.5807 46.2899 13.4603Z" fill="url(#paint1_linear)"/>
<defs>
<linearGradient id="paint0_linear" x1="11.8151" y1="24.4507" x2="41.307" y2="53.9425" gradientUnits="userSpaceOnUse">
<stop stop-color="#0569FF"/>
<stop offset="1" stop-color="#4C8DF1"/>
</linearGradient>
<linearGradient id="paint1_linear" x1="34.4412" y1="7.41651" x2="39.8779" y2="12.8533" gradientUnits="userSpaceOnUse">
<stop stop-color="#A7C5FD"/>
<stop offset="1" stop-color="#7FAEF4"/>
</linearGradient>
</defs>
</svg>
