<svg width="26" height="27" viewBox="0 0 26 27" fill="none" xmlns="http://www.w3.org/2000/svg">
<path d="M11.6054 25.1349C13.4759 25.3538 15.399 25.1293 17.1642 24.4687C18.7574 23.8727 20.226 22.9348 21.4227 21.7242C20.3992 20.7093 19.3851 19.6851 18.3628 18.6689C17.704 19.3151 16.9361 19.8534 16.0911 20.2272C14.9684 20.7304 13.7199 20.9518 12.4928 20.867C11.1065 20.7776 9.7478 20.296 8.61741 19.4883C7.21484 18.4993 6.16443 17.0198 5.70257 15.3661C5.35624 14.153 5.32755 12.8532 5.6071 11.6235C5.83181 10.6178 6.26954 9.66111 6.8779 8.82982C7.44259 8.05667 8.15505 7.39169 8.96552 6.8821C9.89964 6.29203 10.9653 5.91167 12.0622 5.77812C13.0021 5.66005 13.9639 5.7215 14.8818 5.95585C14.9826 6.00435 15.0402 5.88958 15.1034 5.83245C16.1379 4.79271 17.1774 3.75804 18.212 2.7188C16.3506 1.8149 14.2513 1.40204 12.1868 1.54779C10.459 1.6623 8.75732 2.15919 7.24302 2.99962C6.61155 3.34493 6.01843 3.75677 5.4573 4.20669C5.01398 4.58273 4.57599 4.96867 4.19488 5.40894C3.5497 6.10439 2.99618 6.88439 2.54017 7.71618C2.43861 7.9122 2.32079 8.10009 2.23802 8.30525C2.12452 8.53503 2.0255 8.77142 1.92698 9.00781C1.80105 9.34474 1.66648 9.67914 1.57456 10.0272C1.56365 10.0732 1.53572 10.1118 1.51058 10.1504C1.29984 10.8781 1.18177 11.6314 1.11855 12.3858C1.05202 13.3344 1.08478 14.2913 1.23991 15.2303C1.54917 17.1468 2.34212 18.9815 3.52152 20.5227C4.28628 21.5256 5.21075 22.4069 6.24999 23.1214C7.83538 24.216 9.69118 24.9163 11.6054 25.1349ZM12.8541 23.8532C12.7094 23.8281 12.5758 23.7577 12.4636 23.6645C12.1995 23.4378 12.1046 23.0346 12.2561 22.718C12.4169 22.3366 12.895 22.1315 13.2809 22.2863C13.6727 22.4194 13.9101 22.8833 13.7821 23.2781C13.678 23.6699 13.2509 23.9329 12.8541 23.8532ZM6.05042 21.0097C5.91509 21.0026 5.78154 20.961 5.6655 20.8909C5.37427 20.7124 5.21152 20.3389 5.30089 20.0058C5.37935 19.6483 5.72694 19.3695 6.0946 19.3809C6.47622 19.3705 6.83296 19.6701 6.89542 20.0454C6.9523 20.3077 6.85454 20.5925 6.66335 20.7779C6.50491 20.9386 6.27487 21.0221 6.05042 21.0097ZM3.10613 14.1035C2.93804 14.0722 2.78011 13.9872 2.66077 13.8648C2.42083 13.618 2.3632 13.2155 2.53331 12.9147C2.71511 12.5602 3.18027 12.385 3.54843 12.5435C3.9298 12.6834 4.15755 13.1381 4.03238 13.5263C3.9298 13.9176 3.50273 14.1855 3.10613 14.1035ZM5.94937 7.19593C5.65763 7.14642 5.40398 6.92374 5.31866 6.64038C5.2204 6.34509 5.31536 6.00156 5.54464 5.79335C5.70079 5.65421 5.91027 5.57245 6.12025 5.5821C6.4036 5.58845 6.67833 5.75654 6.80884 6.00867C6.93402 6.23286 6.9396 6.51699 6.82687 6.74753C6.67909 7.07203 6.29849 7.26373 5.94937 7.19593ZM12.8571 4.35142C12.5585 4.30013 12.3006 4.07034 12.2201 3.77759C12.1218 3.45843 12.2488 3.0857 12.5225 2.89425C12.7221 2.74724 12.9902 2.69951 13.2276 2.77085C13.4716 2.84119 13.677 3.03085 13.7626 3.27054C13.8888 3.59402 13.7717 3.9896 13.4939 4.19628C13.3157 4.33466 13.0788 4.39103 12.8571 4.35142Z" fill="#A0A0A0"/>
<path d="M12.8539 23.8532C13.2507 23.9329 13.6778 23.6698 13.7819 23.2781C13.9099 22.8832 13.6725 22.4194 13.2807 22.2863C12.8948 22.1314 12.4166 22.3366 12.2559 22.718C12.1043 23.0346 12.1993 23.4378 12.4634 23.6645C12.5756 23.7577 12.7091 23.828 12.8539 23.8532Z" fill="#C1C1C1"/>
<path d="M3.10617 14.1034C3.50277 14.1854 3.92984 13.9175 4.03242 13.5262C4.1576 13.138 3.92984 12.6833 3.54847 12.5434C3.18031 12.3849 2.71515 12.5601 2.53336 12.9146C2.36324 13.2155 2.42088 13.6179 2.66082 13.8647C2.78015 13.9871 2.93808 14.0721 3.10617 14.1034Z" fill="#C1C1C1"/>
<path d="M21.4228 21.724L21.4256 21.7268C22.0512 21.089 22.618 20.3913 23.0915 19.6328C24.0058 18.1815 24.5992 16.5296 24.8147 14.8277C24.9587 13.6881 24.9486 12.5273 24.7627 11.3931C24.4402 9.36157 23.5709 7.42173 22.277 5.82339C21.2029 4.49089 19.8428 3.38487 18.3056 2.63026L18.2896 2.63687C18.264 2.66479 18.2381 2.69171 18.2122 2.71862C17.1775 3.75786 16.138 4.79253 15.1036 5.83228C15.0404 5.8894 14.9827 6.00417 14.8819 5.95567C13.9641 5.72132 13.0023 5.65987 12.0623 5.77794C10.9654 5.91149 9.89979 6.29185 8.96567 6.88192C8.1552 7.39151 7.44274 8.05649 6.87805 8.82964C6.26969 9.66093 5.83196 10.6176 5.60725 11.6234C5.3277 12.853 5.35639 14.1528 5.70272 15.3659C6.16457 17.0196 7.21498 18.4992 8.61756 19.4881C9.74795 20.2958 11.1066 20.7775 12.4929 20.8668C13.7201 20.9516 14.9685 20.7302 16.0913 20.227C16.9363 19.8532 17.7041 19.315 18.363 18.6688C19.3852 19.6849 20.3993 20.7092 21.4228 21.724ZM12.4917 17.0529C11.9526 16.9805 11.428 16.7919 10.9713 16.4958C10.3853 16.1289 9.91096 15.5924 9.60272 14.9747C9.23252 14.2333 9.12944 13.3697 9.28534 12.5583C9.38512 12.0542 9.59078 11.5711 9.88354 11.1488C10.0849 10.8563 10.3317 10.5989 10.5856 10.3521C12.0412 8.89439 13.4956 7.43569 14.9525 5.97954C16.1989 6.3114 17.3563 6.96825 18.28 7.8686C19.4253 8.96903 20.201 10.4442 20.4714 12.0088C20.4775 12.0352 20.477 12.0827 20.5184 12.0748C21.2707 12.0738 22.023 12.0751 22.7756 12.0735C23.2591 12.0812 23.7118 12.4486 23.8105 12.9231C23.8161 12.9538 23.8106 12.982 23.7935 13.0082C23.8245 13.1532 23.8463 13.3022 23.8286 13.4507L23.8225 13.4406C23.7704 13.957 23.2933 14.3831 22.7751 14.3843C20.7276 14.3861 18.6801 14.3846 16.6324 14.3861C16.4688 14.9467 16.1626 15.4609 15.7683 15.89C15.1132 16.5883 14.1875 17.0328 13.2288 17.0788C12.983 17.0783 12.7352 17.0925 12.4917 17.0529ZM19.7628 7.19347C19.4418 7.14116 19.1694 6.8738 19.1102 6.55413C19.0727 6.34745 19.1067 6.12198 19.2303 5.94856C19.3766 5.71497 19.6569 5.5738 19.9314 5.58675C20.1426 5.58599 20.3447 5.68704 20.494 5.83202C20.6177 5.97421 20.7086 6.15372 20.7142 6.34491C20.736 6.6336 20.5857 6.93144 20.3366 7.08022C20.1711 7.19347 19.9585 7.22622 19.7628 7.19347Z" fill="#686868"/>
<path d="M6.0504 21.0095C6.27485 21.022 6.50489 20.9384 6.66333 20.7777C6.85452 20.5924 6.95227 20.3075 6.8954 20.0452C6.83294 19.6699 6.4762 19.3703 6.09458 19.3807C5.72692 19.3693 5.37932 19.6481 5.30087 20.0056C5.21149 20.3387 5.37425 20.7122 5.66548 20.8907C5.78151 20.9608 5.91507 21.0024 6.0504 21.0095Z" fill="#C3C3C3"/>
<path d="M12.4913 17.0531C12.7348 17.0927 12.9826 17.0785 13.2284 17.079C14.1872 17.033 15.1129 16.5884 15.768 15.8902C16.1623 15.4611 16.4685 14.9469 16.632 14.3863C15.4217 14.3866 14.211 14.3866 13.0004 14.3866C12.6909 14.3893 12.3852 14.2489 12.1826 14.0156C12.03 13.8417 11.9353 13.6182 11.9175 13.3874C11.8873 13.0277 12.0536 12.6587 12.3413 12.4409C12.5348 12.2908 12.78 12.2124 13.0248 12.2174C16.2415 12.2185 19.4585 12.219 22.6753 12.2167C22.7961 12.2157 22.9188 12.2205 23.0358 12.2543C23.3966 12.3512 23.6965 12.647 23.7932 13.0084C23.8102 12.9822 23.8158 12.954 23.8102 12.9233C23.7115 12.4487 23.2587 12.0813 22.7753 12.0737C22.0227 12.0752 21.2704 12.074 20.5181 12.075C20.4767 12.0829 20.4772 12.0354 20.4711 12.009C20.2007 10.4444 19.425 8.96921 18.2796 7.86878C17.3559 6.96843 16.1986 6.31158 14.9522 5.97972C13.4953 7.43587 12.0409 8.89456 10.5853 10.3522C10.3314 10.599 10.0846 10.8565 9.88321 11.149C9.59046 11.5712 9.38479 12.0544 9.28501 12.5584C9.12911 13.3699 9.23219 14.2335 9.60239 14.9749C9.91063 15.5926 10.3849 16.1291 10.9709 16.496C11.4277 16.7921 11.9523 16.9807 12.4913 17.0531Z" fill="#474747"/>
<path d="M12.1826 14.0155C12.3852 14.2488 12.6909 14.3892 13.0004 14.3864C14.211 14.3864 15.4216 14.3864 16.632 14.3862C18.6798 14.3847 20.7273 14.3862 22.7748 14.3844C23.293 14.3831 23.7701 13.9571 23.8221 13.4406C23.8173 13.4323 23.8074 13.416 23.8023 13.4079C23.7089 13.8779 23.2546 14.2498 22.7748 14.247C19.6017 14.2445 16.4286 14.244 13.2556 14.2427C13.0593 14.2394 12.8559 14.263 12.6678 14.193C12.4377 14.1208 12.243 13.9619 12.1023 13.7689C12.0175 13.6534 11.9909 13.5089 11.9175 13.3873C11.9353 13.6181 12.03 13.8416 12.1826 14.0155Z" fill="#BFBFBF"/>
<path d="M5.94948 7.19589C6.2986 7.26369 6.67921 7.07199 6.82698 6.74749C6.93972 6.51695 6.93413 6.23283 6.80895 6.00863C6.67845 5.7565 6.40372 5.58841 6.12036 5.58206C5.91038 5.57242 5.70091 5.65417 5.54476 5.79331C5.31548 6.00152 5.22052 6.34505 5.31878 6.64035C5.40409 6.9237 5.65774 7.14638 5.94948 7.19589Z" fill="#BFBFBF"/>
<path d="M12.6679 14.193C12.856 14.2631 13.0594 14.2394 13.2557 14.2427C16.4287 14.244 19.6018 14.2445 22.7749 14.2471C23.2547 14.2498 23.709 13.8779 23.8024 13.4079C23.8075 13.416 23.8174 13.4323 23.8222 13.4406L23.8283 13.4508C23.8461 13.3023 23.8243 13.1532 23.7933 13.0082C23.6965 12.6469 23.3967 12.3511 23.0359 12.2541C22.9188 12.2204 22.7962 12.2156 22.6753 12.2166C19.4586 12.2189 16.2416 12.2183 13.0249 12.2173C12.7801 12.2123 12.5348 12.2907 12.3414 12.4408C12.0537 12.6586 11.8874 13.0275 11.9176 13.3873C11.991 13.5089 12.0176 13.6534 12.1024 13.7689C12.2431 13.9619 12.4378 14.1209 12.6679 14.193Z" fill="#B0B0B0"/>
<path d="M1.51074 10.1504C1.53588 10.1118 1.56381 10.0732 1.57473 10.0272C1.66664 9.67914 1.80121 9.34475 1.92715 9.00781C2.02566 8.77143 2.12469 8.53504 2.23818 8.30525C2.32096 8.1001 2.43877 7.91221 2.54033 7.71619C2.99635 6.88439 3.54986 6.10439 4.19504 5.40895C4.57615 4.96867 5.01414 4.58274 5.45746 4.2067C6.01859 3.75678 6.61172 3.34494 7.24318 2.99963C8.75748 2.1592 10.4592 1.6623 12.187 1.54779C14.2515 1.40205 16.3508 1.8149 18.2122 2.71881C18.2381 2.69189 18.264 2.66498 18.2896 2.63705L18.2904 2.62156C17.2159 2.0876 16.0591 1.71943 14.8738 1.53205C13.4288 1.30607 11.9422 1.34188 10.5112 1.64631C8.78744 2.01066 7.14898 2.76883 5.7525 3.84285C4.13969 5.0776 2.84984 6.73053 2.04902 8.59775C1.83523 9.10227 1.64455 9.61896 1.51074 10.1504Z" fill="#939393"/>
<path d="M19.7622 7.19351C19.958 7.22626 20.1705 7.19351 20.3361 7.08027C20.5851 6.93148 20.7355 6.63365 20.7136 6.34496C20.708 6.15377 20.6171 5.97425 20.4935 5.83207C20.3442 5.68709 20.1421 5.58603 19.9308 5.58679C19.6564 5.57385 19.376 5.71502 19.2298 5.94861C19.1061 6.12203 19.0721 6.34749 19.1097 6.55417C19.1689 6.87384 19.4413 7.1412 19.7622 7.19351Z" fill="#767676"/>
<path d="M12.8566 4.35138C13.0783 4.39099 13.3151 4.33463 13.4934 4.19625C13.7712 3.98957 13.8882 3.59398 13.762 3.27051C13.6765 3.03082 13.471 2.84115 13.227 2.77082C12.9896 2.69947 12.7215 2.74721 12.5219 2.89422C12.2482 3.08566 12.1213 3.4584 12.2195 3.77756C12.3 4.07031 12.558 4.3001 12.8566 4.35138Z" fill="#BEBEBE"/>
</svg>
